sem3/DSDL-LAB/lab-07/lab5q1_tb.vcd
$date
	Sat Oct 22 15:55:11 2022
$end
$version
	Icarus Verilog
$end
$timescale
	1ns
$end
$scope module lab5q1_tb $end
$var wire 4 ! out [3:0] $end
$var reg 1 " en $end
$var reg 2 # in [1:0] $end
$scope module d0 $end
$var wire 1 " en $end
$var wire 2 $ in [1:0] $end
$var reg 4 % out [3:0] $end
$upscope $end
$upscope $end
$enddefinitions $end
#0
$dumpvars
b0 %
b0 $
b0 #
0"
b0 !
$end
#20
b1 #
b1 $
#40
b10 #
b10 $
#60
b11 #
b11 $
#80
b1 !
b1 %
1"
b0 #
b0 $
#100
b10 !
b10 %
b1 #
b1 $
#120
b100 !
b100 %
b10 #
b10 $
#140
b1000 !
b1000 %
b11 #
b11 $
